simulation/qsim/adc.msim.vcd
$comment
	File created using the following command:
		vcd file adc.msim.vcd -direction
$end
$date
	Fri Nov 25 13:17:57 2022
$end
$version
	ModelSim Version 10.1d
$end
$timescale
	1ps
$end
$scope module adc_vlg_vec_tst $end
$var reg 1 ! clock $end
$var reg 1 " reset $end
$var reg 1 # x $end
$var wire 1 $ s1 $end
$var wire 1 % s2 $end
$var wire 1 & s3 $end
$var wire 1 ' sampler $end
$scope module i1 $end
$var wire 1 ( gnd $end
$var wire 1 ) vcc $end
$var wire 1 * unknown $end
$var tri1 1 + devclrn $end
$var tri1 1 , devpor $end
$var tri1 1 - devoe $end
$var wire 1 . fstate.state14~q $end
$var wire 1 / Selector11~0_combout $end
$var wire 1 0 clock~input_o $end
$var wire 1 1 clock~inputclkctrl_outclk $end
$var wire 1 2 s1~output_o $end
$var wire 1 3 s2~output_o $end
$var wire 1 4 s3~output_o $end
$var wire 1 5 reset~input_o $end
$var wire 1 6 x~input_o $end
$var wire 1 7 fstate.state1~0_combout $end
$var wire 1 8 fstate.state1~q $end
$var wire 1 9 reg_fstate.state3~0_combout $end
$var wire 1 : fstate.state3~q $end
$var wire 1 ; reg_fstate.state6~0_combout $end
$var wire 1 < fstate.state6~q $end
$var wire 1 = Selector12~0_combout $end
$var wire 1 > fstate.state13~q $end
$var wire 1 ? Selector13~0_combout $end
$var wire 1 @ fstate.state12~q $end
$var wire 1 A reg_fstate.state7~0_combout $end
$var wire 1 B fstate.state7~q $end
$var wire 1 C Selector10~0_combout $end
$var wire 1 D fstate.state15~q $end
$var wire 1 E s1~0_combout $end
$var wire 1 F s1~1_combout $end
$var wire 1 G reg_fstate.state2~0_combout $end
$var wire 1 H fstate.state2~q $end
$var wire 1 I reg_fstate.state5~0_combout $end
$var wire 1 J fstate.state5~q $end
$var wire 1 K Selector9~0_combout $end
$var wire 1 L fstate.state11~q $end
$var wire 1 M Selector8~0_combout $end
$var wire 1 N fstate.state10~q $end
$var wire 1 O s2~0_combout $end
$var wire 1 P reg_fstate.state4~0_combout $end
$var wire 1 Q fstate.state4~q $end
$var wire 1 R Selector6~0_combout $end
$var wire 1 S fstate.state9~q $end
$var wire 1 T s3~0_combout $end
$var wire 1 U s3~1_combout $end
$upscope $end
$upscope $end
$enddefinitions $end
#0
$dumpvars
0!
0"
0#
0$
0%
0&
x'
0(
1)
x*
1+
1,
1-
0.
0/
00
01
02
03
04
05
06
17
08
19
0:
0;
0<
0=
0>
0?
0@
0A
0B
0C
0D
1E
0F
0G
0H
0I
0J
0K
0L
0M
0N
0O
0P
0Q
0R
0S
0T
0U
$end
#5000
1!
10
11
0'
1:
18
1A
09
#10000
0!
00
01
1'
#15000
1!
10
11
0'
1B
0:
1C
0A
#20000
0!
00
01
1'
#25000
1!
10
11
0'
1D
0B
1T
0E
1U
1O
1F
14
13
12
1&
1%
1$
#30000
0!
00
01
1'
#35000
1!
10
11
0'
#40000
0!
00
01
1'
#45000
1!
10
11
0'
#50000
0!
00
01
1'
#55000
1!
10
11
0'
#60000
0!
00
01
1'
#65000
1!
10
11
0'
#70000
0!
00
01
1'
#75000
1!
10
11
0'
#80000
0!
00
01
1'
#85000
1!
10
11
0'
#90000
0!
00
01
1'
#95000
1!
10
11
0'
#100000
1"
0!
15
00
01
1'
07
0U
0O
0F
04
03
02
0&
0%
0$
#105000
1!
10
11
0'
0D
08
0T
1E
0C
#110000
0!
00
01
1'
#115000
1!
10
11
0'
#120000
0!
00
01
1'
#125000
1!
10
11
0'
#130000
0!
00
01
1'
#135000
1!
10
11
0'
#140000
0!
00
01
1'
#145000
1!
10
11
0'
#150000
0!
00
01
1'
#155000
1!
10
11
0'
#160000
0!
00
01
1'
#165000
1!
10
11
0'
#170000
0!
00
01
1'
#175000
1!
10
11
0'
#180000
0!
00
01
1'
#185000
1!
10
11
0'
#190000
0!
00
01
1'
#195000
1!
10
11
0'
#200000
0"
0!
05
00
01
1'
19
17
#205000
1!
10
11
0'
1:
18
1A
09
#210000
0!
00
01
1'
#215000
1!
10
11
0'
1B
0:
1C
0A
#220000
0!
00
01
1'
#225000
1!
10
11
0'
1D
0B
1T
0E
1U
1O
1F
14
13
12
1&
1%
1$
#230000
0!
00
01
1'
#235000
1!
10
11
0'
#240000
0!
00
01
1'
#245000
1!
10
11
0'
#250000
0!
00
01
1'
#255000
1!
10
11
0'
#260000
0!
00
01
1'
#265000
1!
10
11
0'
#270000
0!
00
01
1'
#275000
1!
10
11
0'
#280000
0!
00
01
1'
#285000
1!
10
11
0'
#290000
0!
00
01
1'
#295000
1!
10
11
0'
#300000
1"
0!
15
00
01
1'
07
0U
0O
0F
04
03
02
0&
0%
0$
#305000
1!
10
11
0'
0D
08
0T
1E
0C
#310000
0!
00
01
1'
#315000
1!
10
11
0'
#320000
0!
00
01
1'
#325000
1!
10
11
0'
#330000
0!
00
01
1'
#335000
1!
10
11
0'
#340000
0!
00
01
1'
#345000
1!
10
11
0'
#350000
0!
00
01
1'
#355000
1!
10
11
0'
#360000
0!
00
01
1'
#365000
1!
10
11
0'
#370000
0!
00
01
1'
#375000
1!
10
11
0'
#380000
0!
00
01
1'
#385000
1!
10
11
0'
#390000
0!
00
01
1'
#395000
1!
10
11
0'
#400000
0"
0!
05
00
01
1'
19
17
#405000
1!
10
11
0'
1:
18
1A
09
#410000
0!
00
01
1'
#415000
1!
10
11
0'
1B
0:
1C
0A
#420000
0!
00
01
1'
#425000
1!
10
11
0'
1D
0B
1T
0E
1U
1O
1F
14
13
12
1&
1%
1$
#430000
0!
00
01
1'
#435000
1!
10
11
0'
#440000
0!
00
01
1'
#445000
1!
10
11
0'
#450000
0!
00
01
1'
#455000
1!
10
11
0'
#460000
0!
00
01
1'
#465000
1!
10
11
0'
#470000
0!
00
01
1'
#475000
1!
10
11
0'
#480000
0!
00
01
1'
#485000
1!
10
11
0'
#490000
0!
00
01
1'
#495000
1!
10
11
0'
#500000
1"
0!
15
00
01
1'
07
0U
0O
0F
04
03
02
0&
0%
0$
#505000
1!
10
11
0'
0D
08
0T
1E
0C
#510000
0!
00
01
1'
#515000
1!
10
11
0'
#520000
0!
00
01
1'
#525000
1!
10
11
0'
#530000
0!
00
01
1'
#535000
1!
10
11
0'
#540000
0!
00
01
1'
#545000
1!
10
11
0'
#550000
0!
00
01
1'
#555000
1!
10
11
0'
#560000
0!
00
01
1'
#565000
1!
10
11
0'
#570000
0!
00
01
1'
#575000
1!
10
11
0'
#580000
0!
00
01
1'
#585000
1!
10
11
0'
#590000
0!
00
01
1'
#595000
1!
10
11
0'
#600000
0"
0!
05
00
01
1'
19
17
#605000
1!
10
11
0'
1:
18
1A
09
#610000
0!
00
01
1'
#615000
1!
10
11
0'
1B
0:
1C
0A
#620000
0!
00
01
1'
#625000
1!
10
11
0'
1D
0B
1T
0E
1U
1O
1F
14
13
12
1&
1%
1$
#630000
0!
00
01
1'
#635000
1!
10
11
0'
#640000
0!
00
01
1'
#645000
1!
10
11
0'
#650000
0!
00
01
1'
#655000
1!
10
11
0'
#660000
0!
00
01
1'
#665000
1!
10
11
0'
#670000
0!
00
01
1'
#675000
1!
10
11
0'
#680000
0!
00
01
1'
#685000
1!
10
11
0'
#690000
0!
00
01
1'
#695000
1!
10
11
0'
#700000
1"
0!
15
00
01
1'
07
0U
0O
0F
04
03
02
0&
0%
0$
#705000
1!
10
11
0'
0D
08
0T
1E
0C
#710000
0!
00
01
1'
#715000
1!
10
11
0'
#720000
0!
00
01
1'
#725000
1!
10
11
0'
#730000
0!
00
01
1'
#735000
1!
10
11
0'
#740000
0!
00
01
1'
#745000
1!
10
11
0'
#750000
0!
00
01
1'
#755000
1!
10
11
0'
#760000
0!
00
01
1'
#765000
1!
10
11
0'
#770000
0!
00
01
1'
#775000
1!
10
11
0'
#780000
0!
00
01
1'
#785000
1!
10
11
0'
#790000
0!
00
01
1'
#795000
1!
10
11
0'
#800000
0"
0!
05
00
01
1'
19
17
#805000
1!
10
11
0'
1:
18
1A
09
#810000
0!
00
01
1'
#815000
1!
10
11
0'
1B
0:
1C
0A
#820000
0!
00
01
1'
#825000
1!
10
11
0'
1D
0B
1T
0E
1U
1O
1F
14
13
12
1&
1%
1$
#830000
0!
00
01
1'
#835000
1!
10
11
0'
#840000
0!
00
01
1'
#845000
1!
10
11
0'
#850000
0!
00
01
1'
#855000
1!
10
11
0'
#860000
0!
00
01
1'
#865000
1!
10
11
0'
#870000
0!
00
01
1'
#875000
1!
10
11
0'
#880000
0!
00
01
1'
#885000
1!
10
11
0'
#890000
0!
00
01
1'
#895000
1!
10
11
0'
#900000
1"
0!
15
00
01
1'
07
0U
0O
0F
04
03
02
0&
0%
0$
#905000
1!
10
11
0'
0D
08
0T
1E
0C
#910000
0!
00
01
1'
#915000
1!
10
11
0'
#920000
0!
00
01
1'
#925000
1!
10
11
0'
#930000
0!
00
01
1'
#935000
1!
10
11
0'
#940000
0!
00
01
1'
#945000
1!
10
11
0'
#950000
0!
00
01
1'
#955000
1!
10
11
0'
#960000
0!
00
01
1'
#965000
1!
10
11
0'
#970000
0!
00
01
1'
#975000
1!
10
11
0'
#980000
0!
00
01
1'
#985000
1!
10
11
0'
#990000
0!
00
01
1'
#995000
1!
10
11
0'
