simulation/qsim/adc.msim.vcd
$comment
	File created using the following command:
		vcd file adc.msim.vcd -direction
$end
$date
	Fri Dec 02 17:34:08 2022
$end
$version
	ModelSim Version 10.1d
$end
$timescale
	1ps
$end
$scope module Block1_vlg_vec_tst $end
$var reg 1 ! areset $end
$var reg 1 " inclk0 $end
$var reg 1 # x $end
$var wire 1 $ c0 $end
$var wire 1 % locked $end
$var wire 1 & s1 $end
$var wire 1 ' s2 $end
$var wire 1 ( s3 $end
$var wire 1 ) sampler $end
$scope module i1 $end
$var wire 1 * gnd $end
$var wire 1 + vcc $end
$var wire 1 , unknown $end
$var tri1 1 - devclrn $end
$var tri1 1 . devpor $end
$var tri1 1 / devoe $end
$var wire 1 0 b2v_inst1|fstate.state4~q $end
$var wire 1 1 b2v_inst1|reg_fstate.state4~0_combout $end
$var wire 1 2 b2v_inst4|altpll_component|auto_generated|pll_lock_sync~feeder_combout $end
$var wire 1 3 areset~input_o $end
$var wire 1 4 areset~inputclkctrl_outclk $end
$var wire 1 5 b2v_inst4|altpll_component|auto_generated|pll_lock_sync~q $end
$var wire 1 6 inclk0~input_o $end
$var wire 1 7 b2v_inst4|altpll_component|auto_generated|wire_pll1_fbout $end
$var wire 1 8 b2v_inst4|altpll_component|auto_generated|wire_pll1_locked $end
$var wire 1 9 b2v_inst4|altpll_component|auto_generated|locked~combout $end
$var wire 1 : b2v_inst1|fstate.state1~q $end
$var wire 1 ; b2v_inst1|reg_fstate.state3~0_combout $end
$var wire 1 < b2v_inst1|fstate.state3~q $end
$var wire 1 = b2v_inst1|reg_fstate.state6~0_combout $end
$var wire 1 > b2v_inst1|fstate.state6~q $end
$var wire 1 ? x~input_o $end
$var wire 1 @ b2v_inst1|reg_fstate.state12~0_combout $end
$var wire 1 A b2v_inst1|fstate.state12~q $end
$var wire 1 B b2v_inst1|reg_fstate.state7~0_combout $end
$var wire 1 C b2v_inst1|fstate.state7~q $end
$var wire 1 D b2v_inst1|reg_fstate.state14~0_combout $end
$var wire 1 E b2v_inst1|fstate.state14~q $end
$var wire 1 F b2v_inst1|reg_fstate.state15~0_combout $end
$var wire 1 G b2v_inst1|fstate.state15~q $end
$var wire 1 H b2v_inst1|s1~0_combout $end
$var wire 1 I b2v_inst1|reg_fstate.state13~0_combout $end
$var wire 1 J b2v_inst1|fstate.state13~q $end
$var wire 1 K b2v_inst1|s1~1_combout $end
$var wire 1 L b2v_inst1|reg_fstate.state2~0_combout $end
$var wire 1 M b2v_inst1|fstate.state2~q $end
$var wire 1 N b2v_inst1|reg_fstate.state5~0_combout $end
$var wire 1 O b2v_inst1|fstate.state5~q $end
$var wire 1 P b2v_inst1|reg_fstate.state10~0_combout $end
$var wire 1 Q b2v_inst1|fstate.state10~q $end
$var wire 1 R b2v_inst1|reg_fstate.state11~0_combout $end
$var wire 1 S b2v_inst1|fstate.state11~q $end
$var wire 1 T b2v_inst1|s2~0_combout $end
$var wire 1 U b2v_inst1|reg_fstate.state9~0_combout $end
$var wire 1 V b2v_inst1|fstate.state9~q $end
$var wire 1 W b2v_inst1|s3~2_combout $end
$var wire 1 X b2v_inst1|s3~3_combout $end
$var wire 1 Y b2v_inst4|altpll_component|auto_generated|wire_pll1_clk[0]~clkctrl_outclk $end
$var wire 1 Z b2v_inst4|altpll_component|auto_generated|wire_pll1_clk [4] $end
$var wire 1 [ b2v_inst4|altpll_component|auto_generated|wire_pll1_clk [3] $end
$var wire 1 \ b2v_inst4|altpll_component|auto_generated|wire_pll1_clk [2] $end
$var wire 1 ] b2v_inst4|altpll_component|auto_generated|wire_pll1_clk [1] $end
$var wire 1 ^ b2v_inst4|altpll_component|auto_generated|wire_pll1_clk [0] $end
$var wire 1 _ b2v_inst4|altpll_component|auto_generated|pll1_CLK_bus [4] $end
$var wire 1 ` b2v_inst4|altpll_component|auto_generated|pll1_CLK_bus [3] $end
$var wire 1 a b2v_inst4|altpll_component|auto_generated|pll1_CLK_bus [2] $end
$var wire 1 b b2v_inst4|altpll_component|auto_generated|pll1_CLK_bus [1] $end
$var wire 1 c b2v_inst4|altpll_component|auto_generated|pll1_CLK_bus [0] $end
$upscope $end
$upscope $end
$enddefinitions $end
#0
$dumpvars
0!
0"
0#
x$
0%
0&
0'
0(
x)
0*
1+
x,
1-
1.
1/
00
01
12
03
04
05
06
x7
08
09
0:
0;
0<
0=
0>
0?
0@
0A
0B
0C
0D
0E
0F
0G
1H
0I
0J
0K
0L
0M
0N
0O
0P
0Q
0R
0S
0T
0U
0V
0W
0X
xY
x^
x]
x\
x[
xZ
xc
xb
xa
x`
x_
$end
#833
17
#10000
1"
0)
16
#10833
07
#20000
0"
1)
06
#20833
17
#30000
1"
0)
16
#30833
07
#40000
0"
1)
06
#40833
17
#50000
1"
0)
16
#50833
07
#60000
0"
1)
06
#60833
17
#70000
1"
0)
16
#75416
07
#80000
0"
1)
06
#90000
1"
0)
16
17
18
0_
0`
0a
0b
1c
0Z
0[
0\
0]
1^
1Y
1$
15
1;
19
1%
#100000
0"
1)
06
07
#110000
1"
0)
16
17
#120000
0"
1)
06
07
#130000
1"
0)
16
17
#140000
0"
1)
06
07
#150000
1"
0)
16
17
#160000
0"
1)
06
07
#170000
1"
0)
16
17
#180000
0"
1)
06
07
#190000
1"
0)
16
17
#200000
0"
1)
06
07
#210000
1"
0)
16
17
#220000
0"
1)
06
07
#230000
1"
0)
16
17
#240000
0"
1)
06
07
#250000
1"
0)
16
17
#260000
0"
1)
06
07
#270000
1"
0)
16
17
#280000
0"
1)
06
07
#290000
1"
0)
16
17
#300000
0"
1)
06
07
#310000
1"
0)
16
17
#320000
0"
1)
06
07
#330000
1"
0)
16
17
#340000
0"
1)
06
07
#350000
1"
0)
16
17
#360000
0"
1)
06
07
#370000
1"
0)
16
17
#380000
0"
1)
06
07
#390000
1"
0)
16
17
#400000
0"
1)
06
07
#410000
1"
0)
16
17
#420000
0"
1)
06
07
#430000
1"
0)
16
17
#440000
0"
1)
06
07
#450000
1"
0)
16
17
#460000
0"
1)
06
07
#470000
1"
0)
16
17
#480000
0"
1)
06
07
#490000
1"
0)
16
17
#500000
0"
1)
06
07
#510000
1"
0)
16
17
#520000
0"
1)
06
07
#530000
1"
0)
16
17
#540000
0"
1)
06
07
#550000
1"
0)
16
17
#560000
0"
1)
06
07
#570000
1"
0)
16
17
#580000
0"
1)
06
07
#590000
1"
0)
16
17
#600000
0"
1)
06
07
#610000
1"
0)
16
17
#620000
0"
1)
06
07
#630000
1"
0)
16
17
#640000
0"
1)
06
07
#650000
1"
0)
16
17
#660000
0"
1)
06
07
#670000
1"
0)
16
17
#680000
0"
1)
06
07
#690000
1"
0)
16
17
#700000
0"
1)
06
07
#710000
1"
0)
16
17
#720000
0"
1)
06
07
#730000
1"
0)
16
17
#740000
0"
1)
06
07
#750000
1"
0)
16
17
#760000
0"
1)
06
07
#770000
1"
0)
16
17
#780000
0"
1)
06
07
#790000
1"
0)
16
17
#800000
0"
1)
06
07
#810000
1"
0)
16
17
#820000
0"
1)
06
07
#830000
1"
0)
16
17
#840000
0"
1)
06
07
#850000
1"
0)
16
17
#860000
0"
1)
06
07
#870000
1"
0)
16
17
#880000
0"
1)
06
07
#890000
1"
0)
16
17
#900000
0"
1)
06
07
#910000
1"
0)
16
17
#920000
0"
1)
06
07
#930000
1"
0)
16
17
#940000
0"
1)
06
07
#950000
1"
0)
16
17
#960000
0"
1)
06
07
#970000
1"
0)
16
17
#980000
0"
1)
06
07
#990000
1"
0)
16
17
#1000000
0"
1)
06
07
#1010000
1"
0)
16
17
#1020000
0"
1)
06
07
#1030000
1"
0)
16
17
#1040000
0"
1)
06
07
#1050000
1"
0)
16
17
#1060000
0"
1)
06
07
#1070000
1"
0)
16
17
#1080000
0"
1)
06
07
#1090000
1"
0)
16
17
#1100000
0"
1)
06
07
#1110000
1"
0)
16
17
#1120000
0"
1)
06
07
#1130000
1"
0)
16
17
#1140000
0"
1)
06
07
#1150000
1"
0)
16
17
#1160000
0"
1)
06
07
#1170000
1"
0)
16
17
#1180000
0"
1)
06
07
#1190000
1"
0)
16
17
#1200000
0"
1)
06
07
#1210000
1"
0)
16
17
#1220000
0"
1)
06
07
#1230000
1"
0)
16
17
#1240000
0"
1)
06
07
#1250000
1"
0)
16
17
#1260000
0"
1)
06
07
#1270000
1"
0)
16
17
#1280000
0"
1)
06
07
#1290000
1"
0)
16
17
#1300000
0"
1)
06
07
#1310000
1"
0)
16
17
#1320000
0"
1)
06
07
#1330000
1"
0)
16
17
#1340000
0"
1)
06
07
#1350000
1"
0)
16
17
#1360000
0"
1)
06
07
#1370000
1"
0)
16
17
#1380000
0"
1)
06
07
#1390000
1"
0)
16
17
#1400000
0"
1)
06
07
#1410000
1"
0)
16
17
#1420000
0"
1)
06
07
#1430000
1"
0)
16
17
#1440000
0"
1)
06
07
#1450000
1"
0)
16
17
#1460000
0"
1)
06
07
#1470000
1"
0)
16
17
#1480000
0"
1)
06
07
#1490000
1"
0)
16
17
#1500000
0"
1)
06
07
#1510000
1"
0)
16
17
#1520000
0"
1)
06
07
#1530000
1"
0)
16
17
#1540000
0"
1)
06
07
#1550000
1"
0)
16
17
#1560000
0"
1)
06
07
#1570000
1"
0)
16
17
#1580000
0"
1)
06
07
#1590000
1"
0)
16
17
#1600000
0"
1)
06
07
#1610000
1"
0)
16
17
#1620000
0"
1)
06
07
#1630000
1"
0)
16
17
#1640000
0"
1)
06
07
#1650000
1"
0)
16
17
#1660000
0"
1)
06
07
#1670000
1"
0)
16
17
#1680000
0"
1)
06
07
#1690000
1"
0)
16
17
#1700000
0"
1)
06
07
#1710000
1"
0)
16
17
#1720000
0"
1)
06
07
#1730000
1"
0)
16
17
#1740000
0"
1)
06
07
#1750000
1"
0)
16
17
#1760000
0"
1)
06
07
#1770000
1"
0)
16
17
#1780000
0"
1)
06
07
#1790000
1"
0)
16
17
#1800000
0"
1)
06
07
#1810000
1"
0)
16
17
#1820000
0"
1)
06
07
#1830000
1"
0)
16
17
#1840000
0"
1)
06
07
#1850000
1"
0)
16
17
#1860000
0"
1)
06
07
#1870000
1"
0)
16
17
#1880000
0"
1)
06
07
#1890000
1"
0)
16
17
#1900000
0"
1)
06
07
#1910000
1"
0)
16
17
#1920000
0"
1)
06
07
#1930000
1"
0)
16
17
#1940000
0"
1)
06
07
#1950000
1"
0)
16
17
#1960000
0"
1)
06
07
#1970000
1"
0)
16
17
#1980000
0"
1)
06
07
#1990000
1"
0)
16
17
#2000000
0"
1)
06
07
#2010000
1"
0)
16
17
#2020000
0"
1)
06
07
#2030000
1"
0)
16
17
#2040000
0"
1)
06
07
#2050000
1"
0)
16
17
#2060000
0"
1)
06
07
#2070000
1"
0)
16
17
#2080000
0"
1)
06
07
#2090000
1"
0)
16
17
#2100000
0"
1)
06
07
#2110000
1"
0)
16
17
#2120000
0"
1)
06
07
#2130000
1"
0)
16
17
#2140000
0"
1)
06
07
#2150000
1"
0)
16
17
#2160000
0"
1)
06
07
#2170000
1"
0)
16
17
#2180000
0"
1)
06
07
#2190000
1"
0)
16
17
#2200000
0"
1)
06
07
#2210000
1"
0)
16
17
#2220000
0"
1)
06
07
#2230000
1"
0)
16
17
#2240000
0"
1)
06
07
#2250000
1"
0)
16
17
#2260000
0"
1)
06
07
#2270000
1"
0)
16
17
#2280000
0"
1)
06
07
#2290000
1"
0)
16
17
#2300000
0"
1)
06
07
#2310000
1"
0)
16
17
#2320000
0"
1)
06
07
#2330000
1"
0)
16
17
#2340000
0"
1)
06
07
#2350000
1"
0)
16
17
#2360000
0"
1)
06
07
#2370000
1"
0)
16
17
#2380000
0"
1)
06
07
#2390000
1"
0)
16
17
#2400000
0"
1)
06
07
#2410000
1"
0)
16
17
#2420000
0"
1)
06
07
#2430000
1"
0)
16
17
#2440000
0"
1)
06
07
#2450000
1"
0)
16
17
#2460000
0"
1)
06
07
#2470000
1"
0)
16
17
#2480000
0"
1)
06
07
#2490000
1"
0)
16
17
#2500000
0"
1)
06
07
#2510000
1"
0)
16
17
#2520000
0"
1)
06
07
#2530000
1"
0)
16
17
#2540000
0"
1)
06
07
#2550000
1"
0)
16
17
#2560000
0"
1)
06
07
#2570000
1"
0)
16
17
#2580000
0"
1)
06
07
#2590000
1"
0)
16
17
#2600000
0"
1)
06
07
#2610000
1"
0)
16
17
#2620000
0"
1)
06
07
#2630000
1"
0)
16
17
#2640000
0"
1)
06
07
#2650000
1"
0)
16
17
#2660000
0"
1)
06
07
#2670000
1"
0)
16
17
#2680000
0"
1)
06
07
#2690000
1"
0)
16
17
#2700000
0"
1)
06
07
#2710000
1"
0)
16
17
#2720000
0"
1)
06
07
#2730000
1"
0)
16
17
#2740000
0"
1)
06
07
#2750000
1"
0)
16
17
#2760000
0"
1)
06
07
#2770000
1"
0)
16
17
#2780000
0"
1)
06
07
#2790000
1"
0)
16
17
#2800000
0"
1)
06
07
#2810000
1"
0)
16
17
#2820000
0"
1)
06
07
#2830000
1"
0)
16
17
#2840000
0"
1)
06
07
#2850000
1"
0)
16
17
#2860000
0"
1)
06
07
#2870000
1"
0)
16
17
#2880000
0"
1)
06
07
#2890000
1"
0)
16
17
#2900000
0"
1)
06
07
#2910000
1"
0)
16
17
#2920000
0"
1)
06
07
#2930000
1"
0)
16
17
#2940000
0"
1)
06
07
#2950000
1"
0)
16
17
#2960000
0"
1)
06
07
#2970000
1"
0)
16
17
#2980000
0"
1)
06
07
#2990000
1"
0)
16
17
#3000000
0"
1)
06
07
#3010000
1"
0)
16
17
#3020000
0"
1)
06
07
#3030000
1"
0)
16
17
#3040000
0"
1)
06
07
#3050000
1"
0)
16
17
#3060000
0"
1)
06
07
#3070000
1"
0)
16
17
#3080000
0"
1)
06
07
#3090000
1"
0)
16
17
#3100000
0"
1)
06
07
#3110000
1"
0)
16
17
#3120000
0"
1)
06
07
#3130000
1"
0)
16
17
#3140000
0"
1)
06
07
#3150000
1"
0)
16
17
#3160000
0"
1)
06
07
#3170000
1"
0)
16
17
#3180000
0"
1)
06
07
#3190000
1"
0)
16
17
#3200000
0"
1)
06
07
#3210000
1"
0)
16
17
#3220000
0"
1)
06
07
#3230000
1"
0)
16
17
#3240000
0"
1)
06
07
#3250000
1"
0)
16
17
#3260000
0"
1)
06
07
#3270000
1"
0)
16
17
#3280000
0"
1)
06
07
#3290000
1"
0)
16
17
#3300000
0"
1)
06
07
#3310000
1"
0)
16
17
#3320000
0"
1)
06
07
#3330000
1"
0)
16
17
#3340000
0"
1)
06
07
#3350000
1"
0)
16
17
#3360000
0"
1)
06
07
#3370000
1"
0)
16
17
#3380000
0"
1)
06
07
#3390000
1"
0)
16
17
#3400000
0"
1)
06
07
#3410000
1"
0)
16
17
#3420000
0"
1)
06
07
#3430000
1"
0)
16
17
#3440000
0"
1)
06
07
#3450000
1"
0)
16
17
#3460000
0"
1)
06
07
#3470000
1"
0)
16
17
#3480000
0"
1)
06
07
#3490000
1"
0)
16
17
#3500000
0"
1)
06
07
#3510000
1"
0)
16
17
#3520000
0"
1)
06
07
#3530000
1"
0)
16
17
#3540000
0"
1)
06
07
#3550000
1"
0)
16
17
#3560000
0"
1)
06
07
#3570000
1"
0)
16
17
#3580000
0"
1)
06
07
#3590000
1"
0)
16
17
#3600000
0"
1)
06
07
#3610000
1"
0)
16
17
#3620000
0"
1)
06
07
#3630000
1"
0)
16
17
#3640000
0"
1)
06
07
#3650000
1"
0)
16
17
#3660000
0"
1)
06
07
#3670000
1"
0)
16
17
#3680000
0"
1)
06
07
#3690000
1"
0)
16
17
#3700000
0"
1)
06
07
#3710000
1"
0)
16
17
#3720000
0"
1)
06
07
#3730000
1"
0)
16
17
#3740000
0"
1)
06
07
#3750000
1"
0)
16
17
#3760000
0"
1)
06
07
#3770000
1"
0)
16
17
#3780000
0"
1)
06
07
#3790000
1"
0)
16
17
#3800000
0"
1)
06
07
#3810000
1"
0)
16
17
#3820000
0"
1)
06
07
#3830000
1"
0)
16
17
#3840000
0"
1)
06
07
#3850000
1"
0)
16
17
#3860000
0"
1)
06
07
#3870000
1"
0)
16
17
#3880000
0"
1)
06
07
#3890000
1"
0)
16
17
#3900000
0"
1)
06
07
#3910000
1"
0)
16
17
#3920000
0"
1)
06
07
#3930000
1"
0)
16
17
#3940000
0"
1)
06
07
#3950000
1"
0)
16
17
#3960000
0"
1)
06
07
#3970000
1"
0)
16
17
#3980000
0"
1)
06
07
#3990000
1"
0)
16
17
#4000000
0"
1)
06
07
#4010000
1"
0)
16
17
#4020000
0"
1)
06
07
#4030000
1"
0)
16
17
#4040000
0"
1)
06
07
#4050000
1"
0)
16
17
#4060000
0"
1)
06
07
#4070000
1"
0)
16
17
#4080000
0"
1)
06
07
#4090000
1"
0)
16
17
#4100000
0"
1)
06
07
#4110000
1"
0)
16
17
#4120000
0"
1)
06
07
#4130000
1"
0)
16
17
#4140000
0"
1)
06
07
#4150000
1"
0)
16
17
#4160000
0"
1)
06
07
#4170000
1"
0)
16
17
#4180000
0"
1)
06
07
#4190000
1"
0)
16
17
#4200000
0"
1)
06
07
#4210000
1"
0)
16
17
#4220000
0"
1)
06
07
#4230000
1"
0)
16
17
#4240000
0"
1)
06
07
#4250000
1"
0)
16
17
#4260000
0"
1)
06
07
#4270000
1"
0)
16
17
#4280000
0"
1)
06
07
#4290000
1"
0)
16
17
#4300000
0"
1)
06
07
#4310000
1"
0)
16
17
#4320000
0"
1)
06
07
#4330000
1"
0)
16
17
#4340000
0"
1)
06
07
#4350000
1"
0)
16
17
#4360000
0"
1)
06
07
#4370000
1"
0)
16
17
#4380000
0"
1)
06
07
#4390000
1"
0)
16
17
#4400000
0"
1)
06
07
#4410000
1"
0)
16
17
#4420000
0"
1)
06
07
#4430000
1"
0)
16
17
#4440000
0"
1)
06
07
#4450000
1"
0)
16
17
#4460000
0"
1)
06
07
#4470000
1"
0)
16
17
#4480000
0"
1)
06
07
#4490000
1"
0)
16
17
#4500000
0"
1)
06
07
#4510000
1"
0)
16
17
#4520000
0"
1)
06
07
#4530000
1"
0)
16
17
#4540000
0"
1)
06
07
#4550000
1"
0)
16
17
#4560000
0"
1)
06
07
#4570000
1"
0)
16
17
#4580000
0"
1)
06
07
#4590000
1"
0)
16
17
#4600000
0"
1)
06
07
#4610000
1"
0)
16
17
#4620000
0"
1)
06
07
#4630000
1"
0)
16
17
#4640000
0"
1)
06
07
#4650000
1"
0)
16
17
#4660000
0"
1)
06
07
#4670000
1"
0)
16
17
#4680000
0"
1)
06
07
#4690000
1"
0)
16
17
#4700000
0"
1)
06
07
#4710000
1"
0)
16
17
#4720000
0"
1)
06
07
#4730000
1"
0)
16
17
#4740000
0"
1)
06
07
#4750000
1"
0)
16
17
#4760000
0"
1)
06
07
#4770000
1"
0)
16
17
#4780000
0"
1)
06
07
#4790000
1"
0)
16
17
#4800000
0"
1)
06
07
#4810000
1"
0)
16
17
#4820000
0"
1)
06
07
#4830000
1"
0)
16
17
#4840000
0"
1)
06
07
#4850000
1"
0)
16
17
#4860000
0"
1)
06
07
#4870000
1"
0)
16
17
#4880000
0"
1)
06
07
#4890000
1"
0)
16
17
#4900000
0"
1)
06
07
#4910000
1"
0)
16
17
#4920000
0"
1)
06
07
#4930000
1"
0)
16
17
#4940000
0"
1)
06
07
#4950000
1"
0)
16
17
#4960000
0"
1)
06
07
#4970000
1"
0)
16
17
#4980000
0"
1)
06
07
#4990000
1"
0)
16
17
#5000000
0"
1)
06
07
#5010000
1"
0)
16
17
#5020000
0"
1)
06
07
#5030000
1"
0)
16
17
#5040000
0"
1)
06
07
#5050000
1"
0)
16
17
#5060000
0"
1)
06
07
#5070000
1"
0)
16
17
#5080000
0"
1)
06
07
#5090000
1"
0)
16
17
#5100000
0"
1)
06
07
#5110000
1"
0)
16
17
#5120000
0"
1)
06
07
#5130000
1"
0)
16
17
#5140000
0"
1)
06
07
#5150000
1"
0)
16
17
#5160000
0"
1)
06
07
#5170000
1"
0)
16
17
#5180000
0"
1)
06
07
#5190000
1"
0)
16
17
#5200000
0"
1)
06
07
#5210000
1"
0)
16
17
#5220000
0"
1)
06
07
#5230000
1"
0)
16
17
#5240000
0"
1)
06
07
#5250000
1"
0)
16
17
#5260000
0"
1)
06
07
#5270000
1"
0)
16
17
#5280000
0"
1)
06
07
#5290000
1"
0)
16
17
#5300000
0"
1)
06
07
#5310000
1"
0)
16
17
#5320000
0"
1)
06
07
#5330000
1"
0)
16
17
#5340000
0"
1)
06
07
#5350000
1"
0)
16
17
#5360000
0"
1)
06
07
#5370000
1"
0)
16
17
#5380000
0"
1)
06
07
#5390000
1"
0)
16
17
#5400000
0"
1)
06
07
#5410000
1"
0)
16
17
#5420000
0"
1)
06
07
#5430000
1"
0)
16
17
#5440000
0"
1)
06
07
#5450000
1"
0)
16
17
#5460000
0"
1)
06
07
#5470000
1"
0)
16
17
#5480000
0"
1)
06
07
#5490000
1"
0)
16
17
#5500000
0"
1)
06
07
#5510000
1"
0)
16
17
#5520000
0"
1)
06
07
#5530000
1"
0)
16
17
#5540000
0"
1)
06
07
#5550000
1"
0)
16
17
#5560000
0"
1)
06
07
#5570000
1"
0)
16
17
#5580000
0"
1)
06
07
#5590000
1"
0)
16
17
#5600000
0"
1)
06
07
#5610000
1"
0)
16
17
#5620000
0"
1)
06
07
#5630000
1"
0)
16
17
#5640000
0"
1)
06
07
#5650000
1"
0)
16
17
#5660000
0"
1)
06
07
#5670000
1"
0)
16
17
#5680000
0"
1)
06
07
#5690000
1"
0)
16
17
#5700000
0"
1)
06
07
#5710000
1"
0)
16
17
#5720000
0"
1)
06
07
#5730000
1"
0)
16
17
#5740000
0"
1)
06
07
#5750000
1"
0)
16
17
#5760000
0"
1)
06
07
#5770000
1"
0)
16
17
#5780000
0"
1)
06
07
#5790000
1"
0)
16
17
#5800000
0"
1)
06
07
#5810000
1"
0)
16
17
#5820000
0"
1)
06
07
#5830000
1"
0)
16
17
#5840000
0"
1)
06
07
#5850000
1"
0)
16
17
#5860000
0"
1)
06
07
#5870000
1"
0)
16
17
#5880000
0"
1)
06
07
#5890000
1"
0)
16
17
#5900000
0"
1)
06
07
#5910000
1"
0)
16
17
#5920000
0"
1)
06
07
#5930000
1"
0)
16
17
#5940000
0"
1)
06
07
#5950000
1"
0)
16
17
#5960000
0"
1)
06
07
#5970000
1"
0)
16
17
#5980000
0"
1)
06
07
#5990000
1"
0)
16
17
#6000000
0"
1)
06
07
#6010000
1"
0)
16
17
#6020000
0"
1)
06
07
#6030000
1"
0)
16
17
#6040000
0"
1)
06
07
#6050000
1"
0)
16
17
#6060000
0"
1)
06
07
#6070000
1"
0)
16
17
#6080000
0"
1)
06
07
#6090000
1"
0)
16
17
#6100000
0"
1)
06
07
#6110000
1"
0)
16
17
#6120000
0"
1)
06
07
#6130000
1"
0)
16
17
#6140000
0"
1)
06
07
#6150000
1"
0)
16
17
#6160000
0"
1)
06
07
#6170000
1"
0)
16
17
#6180000
0"
1)
06
07
#6190000
1"
0)
16
17
#6200000
0"
1)
06
07
#6210000
1"
0)
16
17
#6220000
0"
1)
06
07
#6230000
1"
0)
16
17
#6240000
0"
1)
06
07
#6250000
1"
0)
16
17
#6260000
0"
1)
06
07
#6270000
1"
0)
16
17
#6280000
0"
1)
06
07
#6290000
1"
0)
16
17
#6300000
0"
1)
06
07
#6310000
1"
0)
16
17
#6320000
0"
1)
06
07
#6330000
1"
0)
16
17
#6340000
0"
1)
06
07
#6350000
1"
0)
16
17
#6360000
0"
1)
06
07
#6370000
1"
0)
16
17
#6380000
0"
1)
06
07
#6390000
1"
0)
16
17
#6400000
0"
1)
06
07
#6410000
1"
0)
16
17
#6420000
0"
1)
06
07
#6430000
1"
0)
16
17
#6440000
0"
1)
06
07
#6450000
1"
0)
16
17
#6460000
0"
1)
06
07
#6470000
1"
0)
16
17
#6480000
0"
1)
06
07
#6490000
1"
0)
16
17
#6500000
0"
1)
06
07
#6510000
1"
0)
16
17
#6520000
0"
1)
06
07
#6530000
1"
0)
16
17
#6540000
0"
1)
06
07
#6550000
1"
0)
16
17
#6560000
0"
1)
06
07
#6570000
1"
0)
16
17
#6580000
0"
1)
06
07
#6590000
1"
0)
16
17
#6600000
0"
1)
06
07
#6610000
1"
0)
16
17
#6620000
0"
1)
06
07
#6630000
1"
0)
16
17
#6640000
0"
1)
06
07
#6650000
1"
0)
16
17
#6660000
0"
1)
06
07
#6670000
1"
0)
16
17
#6680000
0"
1)
06
07
#6690000
1"
0)
16
17
#6700000
0"
1)
06
07
#6710000
1"
0)
16
17
#6720000
0"
1)
06
07
#6730000
1"
0)
16
17
#6740000
0"
1)
06
07
#6750000
1"
0)
16
17
#6760000
0"
1)
06
07
#6770000
1"
0)
16
17
#6780000
0"
1)
06
07
#6790000
1"
0)
16
17
#6800000
0"
1)
06
07
#6810000
1"
0)
16
17
#6820000
0"
1)
06
07
#6830000
1"
0)
16
17
#6840000
0"
1)
06
07
#6850000
1"
0)
16
17
#6860000
0"
1)
06
07
#6870000
1"
0)
16
17
#6880000
0"
1)
06
07
#6890000
1"
0)
16
17
#6900000
0"
1)
06
07
#6910000
1"
0)
16
17
#6920000
0"
1)
06
07
#6930000
1"
0)
16
17
#6940000
0"
1)
06
07
#6950000
1"
0)
16
17
#6960000
0"
1)
06
07
#6970000
1"
0)
16
17
#6980000
0"
1)
06
07
#6990000
1"
0)
16
17
#7000000
0"
1)
06
07
#7010000
1"
0)
16
17
#7020000
0"
1)
06
07
#7030000
1"
0)
16
17
#7040000
0"
1)
06
07
#7050000
1"
0)
16
17
#7060000
0"
1)
06
07
#7070000
1"
0)
16
17
#7080000
0"
1)
06
07
#7090000
1"
0)
16
17
#7100000
0"
1)
06
07
#7110000
1"
0)
16
17
#7120000
0"
1)
06
07
#7130000
1"
0)
16
17
#7140000
0"
1)
06
07
#7150000
1"
0)
16
17
#7160000
0"
1)
06
07
#7170000
1"
0)
16
17
#7180000
0"
1)
06
07
#7190000
1"
0)
16
17
#7200000
0"
1)
06
07
#7210000
1"
0)
16
17
#7220000
0"
1)
06
07
#7230000
1"
0)
16
17
#7240000
0"
1)
06
07
#7250000
1"
0)
16
17
#7260000
0"
1)
06
07
#7270000
1"
0)
16
17
#7280000
0"
1)
06
07
#7290000
1"
0)
16
17
#7300000
0"
1)
06
07
#7310000
1"
0)
16
17
#7320000
0"
1)
06
07
#7330000
1"
0)
16
17
#7340000
0"
1)
06
07
#7350000
1"
0)
16
17
#7360000
0"
1)
06
07
#7370000
1"
0)
16
17
#7380000
0"
1)
06
07
#7390000
1"
0)
16
17
#7400000
0"
1)
06
07
#7410000
1"
0)
16
17
#7420000
0"
1)
06
07
#7430000
1"
0)
16
17
#7440000
0"
1)
06
07
#7450000
1"
0)
16
17
#7460000
0"
1)
06
07
#7470000
1"
0)
16
17
#7480000
0"
1)
06
07
#7490000
1"
0)
16
17
#7500000
0"
1)
06
07
#7510000
1"
0)
16
17
#7520000
0"
1)
06
07
#7530000
1"
0)
16
17
#7540000
0"
1)
06
07
#7550000
1"
0)
16
17
#7560000
0"
1)
06
07
#7570000
1"
0)
16
17
#7580000
0"
1)
06
07
#7590000
1"
0)
16
17
#7600000
0"
1)
06
07
#7610000
1"
0)
16
17
#7620000
0"
1)
06
07
#7630000
1"
0)
16
17
#7640000
0"
1)
06
07
#7650000
1"
0)
16
17
#7660000
0"
1)
06
07
#7670000
1"
0)
16
17
#7680000
0"
1)
06
07
#7690000
1"
0)
16
17
#7700000
0"
1)
06
07
#7710000
1"
0)
16
17
#7720000
0"
1)
06
07
#7730000
1"
0)
16
17
#7740000
0"
1)
06
07
#7750000
1"
0)
16
17
#7760000
0"
1)
06
07
#7770000
1"
0)
16
17
#7780000
0"
1)
06
07
#7790000
1"
0)
16
17
#7800000
0"
1)
06
07
#7810000
1"
0)
16
17
#7820000
0"
1)
06
07
#7830000
1"
0)
16
17
#7840000
0"
1)
06
07
#7850000
1"
0)
16
17
#7860000
0"
1)
06
07
#7870000
1"
0)
16
17
#7880000
0"
1)
06
07
#7890000
1"
0)
16
17
#7900000
0"
1)
06
07
#7910000
1"
0)
16
17
#7920000
0"
1)
06
07
#7930000
1"
0)
16
17
#7940000
0"
1)
06
07
#7950000
1"
0)
16
17
#7960000
0"
1)
06
07
#7970000
1"
0)
16
17
#7980000
0"
1)
06
07
#7990000
1"
0)
16
17
#8000000
0"
1)
06
07
#8010000
1"
0)
16
17
#8020000
0"
1)
06
07
#8030000
1"
0)
16
17
#8040000
0"
1)
06
07
#8050000
1"
0)
16
17
#8060000
0"
1)
06
07
#8070000
1"
0)
16
17
#8080000
0"
1)
06
07
#8090000
1"
0)
16
17
#8100000
0"
1)
06
07
#8110000
1"
0)
16
17
#8120000
0"
1)
06
07
#8130000
1"
0)
16
17
#8140000
0"
1)
06
07
#8150000
1"
0)
16
17
#8160000
0"
1)
06
07
#8170000
1"
0)
16
17
#8180000
0"
1)
06
07
#8190000
1"
0)
16
17
#8200000
0"
1)
06
07
#8210000
1"
0)
16
17
#8220000
0"
1)
06
07
#8230000
1"
0)
16
17
#8240000
0"
1)
06
07
#8250000
1"
0)
16
17
#8260000
0"
1)
06
07
#8270000
1"
0)
16
17
#8280000
0"
1)
06
07
#8290000
1"
0)
16
17
#8300000
0"
1)
06
07
#8310000
1"
0)
16
17
#8320000
0"
1)
06
07
#8330000
1"
0)
16
17
#8340000
0"
1)
06
07
#8350000
1"
0)
16
17
#8360000
0"
1)
06
07
#8370000
1"
0)
16
17
#8380000
0"
1)
06
07
#8390000
1"
0)
16
17
#8400000
0"
1)
06
07
#8410000
1"
0)
16
17
#8420000
0"
1)
06
07
#8430000
1"
0)
16
17
#8440000
0"
1)
06
07
#8450000
1"
0)
16
17
#8460000
0"
1)
06
07
